UVM/sim/riscv_wb.vcd
$date
   Sat Sep 11 23:30:41 2021
$end
$version
  2020.2
$end
$timescale
  1ps
$end
$scope module top $end
$scope module inf $end
$var reg 1 ! wb_rst_i $end
$var reg 1 " wb_clk_i $end
$var reg 32 # wbm_adr_o [31:0] $end
$var reg 32 $ wbm_dat_o [31:0] $end
$var reg 32 % wbm_dat_i [31:0] $end
$var reg 1 & wbm_we_o $end
$var reg 4 ' wbm_sel_o [3:0] $end
$var reg 1 ( wbm_stb_o $end
$var reg 1 ) wbm_ack_i $end
$var reg 1 * wbm_cyc_o $end
$upscope $end
$scope module pico_dut $end
$var wire 1 + trap $end
$var wire 1 , wb_rst_i $end
$var wire 1 - wb_clk_i $end
$var reg 32 . wbm_adr_o [31:0] $end
$var reg 32 / wbm_dat_o [31:0] $end
$var wire 32 0 wbm_dat_i [31:0] $end
$var reg 1 1 wbm_we_o $end
$var reg 4 2 wbm_sel_o [3:0] $end
$var reg 1 3 wbm_stb_o $end
$var wire 1 4 wbm_ack_i $end
$var reg 1 5 wbm_cyc_o $end
$var wire 1 6 pcpi_valid $end
$var wire 32 7 pcpi_insn [31:0] $end
$var wire 32 8 pcpi_rs1 [31:0] $end
$var wire 32 9 pcpi_rs2 [31:0] $end
$var wire 1 : pcpi_wr $end
$var wire 32 ; pcpi_rd [31:0] $end
$var wire 1 < pcpi_wait $end
$var wire 1 = pcpi_ready $end
$var wire 32 > irq [31:0] $end
$var wire 32 ? eoi [31:0] $end
$var wire 1 @ trace_valid $end
$var wire 36 A trace_data [35:0] $end
$var wire 1 B mem_instr $end
$var wire 1 C mem_valid $end
$var wire 32 D mem_addr [31:0] $end
$var wire 32 E mem_wdata [31:0] $end
$var wire 4 F mem_wstrb [3:0] $end
$var reg 1 G mem_ready $end
$var reg 32 H mem_rdata [31:0] $end
$var wire 1 I clk $end
$var wire 1 J resetn $end
$var reg 2 K state [1:0] $end
$var wire 1 L we $end
$var parameter 0 M ENABLE_COUNTERS $end
$var parameter 0 N ENABLE_COUNTERS64 $end
$var parameter 0 O ENABLE_REGS_16_31 $end
$var parameter 0 P ENABLE_REGS_DUALPORT $end
$var parameter 0 Q TWO_STAGE_SHIFT $end
$var parameter 0 R BARREL_SHIFTER $end
$var parameter 0 S TWO_CYCLE_COMPARE $end
$var parameter 0 T TWO_CYCLE_ALU $end
$var parameter 0 U COMPRESSED_ISA $end
$var parameter 0 V CATCH_MISALIGN $end
$var parameter 0 W CATCH_ILLINSN $end
$var parameter 0 X ENABLE_PCPI $end
$var parameter 0 Y ENABLE_MUL $end
$var parameter 0 Z ENABLE_FAST_MUL $end
$var parameter 0 [ ENABLE_DIV $end
$var parameter 0 \ ENABLE_IRQ $end
$var parameter 0 ] ENABLE_IRQ_QREGS $end
$var parameter 0 ^ ENABLE_IRQ_TIMER $end
$var parameter 0 _ ENABLE_TRACE $end
$var parameter 0 ` REGS_INIT_ZERO $end
$var parameter 32 a MASKED_IRQ [31:0] $end
$var parameter 32 b LATCHED_IRQ [31:0] $end
$var parameter 32 c PROGADDR_RESET [31:0] $end
$var parameter 32 d PROGADDR_IRQ [31:0] $end
$var parameter 32 e STACKADDR [31:0] $end
$var parameter 2 f IDLE [1:0] $end
$var parameter 2 g WBSTART [1:0] $end
$var parameter 2 h WBEND [1:0] $end
$scope module picorv32_core $end
$var wire 1 I clk $end
$var wire 1 J resetn $end
$var reg 1 i trap $end
$var reg 1 j mem_valid $end
$var reg 1 k mem_instr $end
$var wire 1 l mem_ready $end
$var reg 32 m mem_addr [31:0] $end
$var reg 32 n mem_wdata [31:0] $end
$var reg 4 o mem_wstrb [3:0] $end
$var wire 32 p mem_rdata [31:0] $end
$var wire 1 q mem_la_read $end
$var wire 1 r mem_la_write $end
$var wire 32 s mem_la_addr [31:0] $end
$var reg 32 t mem_la_wdata [31:0] $end
$var reg 4 u mem_la_wstrb [3:0] $end
$var reg 1 v pcpi_valid $end
$var reg 32 w pcpi_insn [31:0] $end
$var wire 32 8 pcpi_rs1 [31:0] $end
$var wire 32 9 pcpi_rs2 [31:0] $end
$var wire 1 : pcpi_wr $end
$var wire 32 ; pcpi_rd [31:0] $end
$var wire 1 < pcpi_wait $end
$var wire 1 = pcpi_ready $end
$var wire 32 > irq [31:0] $end
$var reg 32 x eoi [31:0] $end
$var reg 1 y trace_valid $end
$var reg 36 z trace_data [35:0] $end
$var reg 64 { count_cycle [63:0] $end
$var reg 64 | count_instr [63:0] $end
$var reg 32 } reg_pc [31:0] $end
$var reg 32 ~ reg_next_pc [31:0] $end
$var reg 32 !! reg_op1 [31:0] $end
$var reg 32 "! reg_op2 [31:0] $end
$var reg 32 #! reg_out [31:0] $end
$var reg 5 $! reg_sh [4:0] $end
$var reg 32 %! next_insn_opcode [31:0] $end
$var reg 32 &! dbg_insn_opcode [31:0] $end
$var reg 32 '! dbg_insn_addr [31:0] $end
$var wire 1 (! dbg_mem_valid $end
$var wire 1 )! dbg_mem_instr $end
$var wire 1 *! dbg_mem_ready $end
$var wire 32 +! dbg_mem_addr [31:0] $end
$var wire 32 ,! dbg_mem_wdata [31:0] $end
$var wire 4 -! dbg_mem_wstrb [3:0] $end
$var wire 32 .! dbg_mem_rdata [31:0] $end
$var wire 32 /! next_pc [31:0] $end
$var reg 1 0! irq_delay $end
$var reg 1 1! irq_active $end
$var reg 32 2! irq_mask [31:0] $end
$var reg 32 3! irq_pending [31:0] $end
$var reg 32 4! timer [31:0] $end
$var integer 32 5! i $end
$var wire 1 6! pcpi_mul_wr $end
$var wire 32 7! pcpi_mul_rd [31:0] $end
$var wire 1 8! pcpi_mul_wait $end
$var wire 1 9! pcpi_mul_ready $end
$var wire 1 :! pcpi_div_wr $end
$var wire 32 ;! pcpi_div_rd [31:0] $end
$var wire 1 <! pcpi_div_wait $end
$var wire 1 =! pcpi_div_ready $end
$var reg 1 >! pcpi_int_wr $end
$var reg 32 ?! pcpi_int_rd [31:0] $end
$var reg 1 @! pcpi_int_wait $end
$var reg 1 A! pcpi_int_ready $end
$var reg 2 B! mem_state [1:0] $end
$var reg 2 C! mem_wordsize [1:0] $end
$var reg 32 D! mem_rdata_word [31:0] $end
$var reg 32 E! mem_rdata_q [31:0] $end
$var reg 1 F! mem_do_prefetch $end
$var reg 1 G! mem_do_rinst $end
$var reg 1 H! mem_do_rdata $end
$var reg 1 I! mem_do_wdata $end
$var wire 1 J! mem_xfer $end
$var reg 1 K! mem_la_secondword $end
$var reg 1 L! mem_la_firstword_reg $end
$var reg 1 M! last_mem_valid $end
$var wire 1 N! mem_la_firstword $end
$var wire 1 O! mem_la_firstword_xfer $end
$var reg 1 P! prefetched_high_word $end
$var reg 1 Q! clear_prefetched_high_word $end
$var reg 16 R! mem_16bit_buffer [15:0] $end
$var wire 32 S! mem_rdata_latched_noshuffle [31:0] $end
$var wire 32 T! mem_rdata_latched [31:0] $end
$var wire 1 U! mem_la_use_prefetched_high_word $end
$var wire 1 V! mem_busy $end
$var wire 1 W! mem_done $end
$var reg 1 X! instr_lui $end
$var reg 1 Y! instr_auipc $end
$var reg 1 Z! instr_jal $end
$var reg 1 [! instr_jalr $end
$var reg 1 \! instr_beq $end
$var reg 1 ]! instr_bne $end
$var reg 1 ^! instr_blt $end
$var reg 1 _! instr_bge $end
$var reg 1 `! instr_bltu $end
$var reg 1 a! instr_bgeu $end
$var reg 1 b! instr_lb $end
$var reg 1 c! instr_lh $end
$var reg 1 d! instr_lw $end
$var reg 1 e! instr_lbu $end
$var reg 1 f! instr_lhu $end
$var reg 1 g! instr_sb $end
$var reg 1 h! instr_sh $end
$var reg 1 i! instr_sw $end
$var reg 1 j! instr_addi $end
$var reg 1 k! instr_slti $end
$var reg 1 l! instr_sltiu $end
$var reg 1 m! instr_xori $end
$var reg 1 n! instr_ori $end
$var reg 1 o! instr_andi $end
$var reg 1 p! instr_slli $end
$var reg 1 q! instr_srli $end
$var reg 1 r! instr_srai $end
$var reg 1 s! instr_add $end
$var reg 1 t! instr_sub $end
$var reg 1 u! instr_sll $end
$var reg 1 v! instr_slt $end
$var reg 1 w! instr_sltu $end
$var reg 1 x! instr_xor $end
$var reg 1 y! instr_srl $end
$var reg 1 z! instr_sra $end
$var reg 1 {! instr_or $end
$var reg 1 |! instr_and $end
$var reg 1 }! instr_rdcycle $end
$var reg 1 ~! instr_rdcycleh $end
$var reg 1 !" instr_rdinstr $end
$var reg 1 "" instr_rdinstrh $end
$var reg 1 #" instr_ecall_ebreak $end
$var reg 1 $" instr_getq $end
$var reg 1 %" instr_setq $end
$var reg 1 &" instr_retirq $end
$var reg 1 '" instr_maskirq $end
$var reg 1 (" instr_waitirq $end
$var reg 1 )" instr_timer $end
$var wire 1 *" instr_trap $end
$var reg 5 +" decoded_rd [4:0] $end
$var reg 5 ," decoded_rs1 [4:0] $end
$var reg 5 -" decoded_rs2 [4:0] $end
$var reg 32 ." decoded_imm [31:0] $end
$var reg 32 /" decoded_imm_j [31:0] $end
$var reg 1 0" decoder_trigger $end
$var reg 1 1" decoder_trigger_q $end
$var reg 1 2" decoder_pseudo_trigger $end
$var reg 1 3" decoder_pseudo_trigger_q $end
$var reg 1 4" compressed_instr $end
$var reg 1 5" is_lui_auipc_jal $end
$var reg 1 6" is_lb_lh_lw_lbu_lhu $end
$var reg 1 7" is_slli_srli_srai $end
$var reg 1 8" is_jalr_addi_slti_sltiu_xori_ori_andi $end
$var reg 1 9" is_sb_sh_sw $end
$var reg 1 :" is_sll_srl_sra $end
$var reg 1 ;" is_lui_auipc_jal_jalr_addi_add_sub $end
$var reg 1 <" is_slti_blt_slt $end
$var reg 1 =" is_sltiu_bltu_sltu $end
$var reg 1 >" is_beq_bne_blt_bge_bltu_bgeu $end
$var reg 1 ?" is_lbu_lhu_lw $end
$var reg 1 @" is_alu_reg_imm $end
$var reg 1 A" is_alu_reg_reg $end
$var reg 1 B" is_compare $end
$var wire 1 C" is_rdcycle_rdcycleh_rdinstr_rdinstrh $end
$var reg 64 D" new_ascii_instr [63:0] $end
$var reg 64 E" dbg_ascii_instr [63:0] $end
$var reg 32 F" dbg_insn_imm [31:0] $end
$var reg 5 G" dbg_insn_rs1 [4:0] $end
$var reg 5 H" dbg_insn_rs2 [4:0] $end
$var reg 5 I" dbg_insn_rd [4:0] $end
$var reg 32 J" dbg_rs1val [31:0] $end
$var reg 32 K" dbg_rs2val [31:0] $end
$var reg 1 L" dbg_rs1val_valid $end
$var reg 1 M" dbg_rs2val_valid $end
$var reg 64 N" q_ascii_instr [63:0] $end
$var reg 32 O" q_insn_imm [31:0] $end
$var reg 32 P" q_insn_opcode [31:0] $end
$var reg 5 Q" q_insn_rs1 [4:0] $end
$var reg 5 R" q_insn_rs2 [4:0] $end
$var reg 5 S" q_insn_rd [4:0] $end
$var reg 1 T" dbg_next $end
$var wire 1 U" launch_next_insn $end
$var reg 1 V" dbg_valid_insn $end
$var reg 64 W" cached_ascii_instr [63:0] $end
$var reg 32 X" cached_insn_imm [31:0] $end
$var reg 32 Y" cached_insn_opcode [31:0] $end
$var reg 5 Z" cached_insn_rs1 [4:0] $end
$var reg 5 [" cached_insn_rs2 [4:0] $end
$var reg 5 \" cached_insn_rd [4:0] $end
$var reg 8 ]" cpu_state [7:0] $end
$var reg 2 ^" irq_state [1:0] $end
$var reg 128 _" dbg_ascii_state [127:0] $end
$var reg 1 `" set_mem_do_rinst $end
$var reg 1 a" set_mem_do_rdata $end
$var reg 1 b" set_mem_do_wdata $end
$var reg 1 c" latched_store $end
$var reg 1 d" latched_stalu $end
$var reg 1 e" latched_branch $end
$var reg 1 f" latched_compr $end
$var reg 1 g" latched_trace $end
$var reg 1 h" latched_is_lu $end
$var reg 1 i" latched_is_lh $end
$var reg 1 j" latched_is_lb $end
$var reg 5 k" latched_rd [4:0] $end
$var reg 32 l" current_pc [31:0] $end
$var reg 4 m" pcpi_timeout_counter [3:0] $end
$var reg 1 n" pcpi_timeout $end
$var reg 32 o" next_irq_pending [31:0] $end
$var reg 1 p" do_waitirq $end
$var reg 32 q" alu_out [31:0] $end
$var reg 32 r" alu_out_q [31:0] $end
$var reg 1 s" alu_out_0 $end
$var reg 1 t" alu_out_0_q $end
$var reg 1 u" alu_wait $end
$var reg 1 v" alu_wait_2 $end
$var reg 32 w" alu_add_sub [31:0] $end
$var reg 32 x" alu_shl [31:0] $end
$var reg 32 y" alu_shr [31:0] $end
$var reg 1 z" alu_eq $end
$var reg 1 {" alu_ltu $end
$var reg 1 |" alu_lts $end
$var reg 1 }" clear_prefetched_high_word_q $end
$var reg 1 ~" cpuregs_write $end
$var reg 32 !# cpuregs_wrdata [31:0] $end
$var reg 32 "# cpuregs_rs1 [31:0] $end
$var reg 32 ## cpuregs_rs2 [31:0] $end
$var reg 5 $# decoded_rs [4:0] $end
$var parameter 0 %# ENABLE_COUNTERS $end
$var parameter 0 &# ENABLE_COUNTERS64 $end
$var parameter 0 '# ENABLE_REGS_16_31 $end
$var parameter 0 (# ENABLE_REGS_DUALPORT $end
$var parameter 0 )# LATCHED_MEM_RDATA $end
$var parameter 0 *# TWO_STAGE_SHIFT $end
$var parameter 0 +# BARREL_SHIFTER $end
$var parameter 0 ,# TWO_CYCLE_COMPARE $end
$var parameter 0 -# TWO_CYCLE_ALU $end
$var parameter 0 .# COMPRESSED_ISA $end
$var parameter 0 /# CATCH_MISALIGN $end
$var parameter 0 0# CATCH_ILLINSN $end
$var parameter 0 1# ENABLE_PCPI $end
$var parameter 0 2# ENABLE_MUL $end
$var parameter 0 3# ENABLE_FAST_MUL $end
$var parameter 0 4# ENABLE_DIV $end
$var parameter 0 5# ENABLE_IRQ $end
$var parameter 0 6# ENABLE_IRQ_QREGS $end
$var parameter 0 7# ENABLE_IRQ_TIMER $end
$var parameter 0 8# ENABLE_TRACE $end
$var parameter 0 9# REGS_INIT_ZERO $end
$var parameter 32 :# MASKED_IRQ [31:0] $end
$var parameter 32 ;# LATCHED_IRQ [31:0] $end
$var parameter 32 <# PROGADDR_RESET [31:0] $end
$var parameter 32 =# PROGADDR_IRQ [31:0] $end
$var parameter 32 ># STACKADDR [31:0] $end
$var parameter 0 ?# irq_timer $end
$var parameter 0 @# irq_ebreak $end
$var parameter 0 A# irq_buserror $end
$var parameter 0 B# irqregs_offset $end
$var parameter 0 C# regfile_size $end
$var parameter 0 D# regindex_bits $end
$var parameter 0 E# WITH_PCPI $end
$var parameter 36 F# TRACE_BRANCH [35:0] $end
$var parameter 36 G# TRACE_ADDR [35:0] $end
$var parameter 36 H# TRACE_IRQ [35:0] $end
$var parameter 8 I# cpu_state_trap [7:0] $end
$var parameter 8 J# cpu_state_fetch [7:0] $end
$var parameter 8 K# cpu_state_ld_rs1 [7:0] $end
$var parameter 8 L# cpu_state_ld_rs2 [7:0] $end
$var parameter 8 M# cpu_state_exec [7:0] $end
$var parameter 8 N# cpu_state_shift [7:0] $end
$var parameter 8 O# cpu_state_stmem [7:0] $end
$var parameter 8 P# cpu_state_ldmem [7:0] $end
$scope task empty_statement $end
$upscope $end
$upscope $end
$upscope $end
$upscope $end
$enddefinitions $end
#0
$dumpvars
1!
bx !!
x!"
bx !#
0"
bx "!
x""
bx "#
bx #
bx #!
x#"
bx ##
bx $
bx $!
x$"
bx $#
bx %
bx %!
x%"
1%#
x&
bx &!
x&"
1&#
bx '
bx '!
x'"
1'#
x(
x(!
x("
1(#
x)
x)!
x)"
0)#
x*
x*!
x*"
1*#
x+
bx +!
bx +"
0+#
1,
bx ,!
bx ,"
0,#
0-
bx -!
bx -"
0-#
bx .
bx .!
bx ."
0.#
bx /
bx /!
bx /"
1/#
bx 0
x0!
x0"
10#
x1
x1!
x1"
01#
bx 2
bx 2!
x2"
02#
x3
bx 3!
x3"
03#
x4
bx 4!
x4"
04#
x5
bx 5!
x5"
05#
x6
06!
x6"
16#
bx 7
bx 7!
x7"
17#
bx 8
08!
x8"
08#
bx 9
09!
x9"
09#
z:
0:!
x:"
b0 :#
bz ;
bx ;!
x;"
b11111111111111111111111111111111 ;#
z<
0<!
x<"
b0 <#
z=
0=!
x="
b10000 =#
bz >
0>!
x>"
b11111111111111111111111111111111 >#
bx ?
bx ?!
x?"
b0 ?#
x@
0@!
x@"
b1 @#
bx A
0A!
xA"
b10 A#
xB
bx B!
xB"
b100000 B#
xC
bx C!
xC"
b100000 C#
bx D
bx D!
bx D"
b101 D#
bx E
bx E!
bx E"
0E#
bx F
xF!
bx F"
b100000000000000000000000000000000 F#
xG
xG!
bx G"
b1000000000000000000000000000000000 G#
bx H
xH!
bx H"
b100000000000000000000000000000000000 H#
0I
xI!
bx I"
b10000000 I#
0J
xJ!
bx J"
b1000000 J#
bx K
xK!
bx K"
b100000 K#
xL
xL!
xL"
b10000 L#
1M
xM!
xM"
b1000 M#
1N
0N!
bx N"
b100 N#
1O
0O!
bx O"
b10 O#
1P
xP!
bx P"
b1 P#
1Q
0Q!
bx Q"
0R
bx R!
bx R"
0S
bx S!
bx S"
0T
bx T!
xT"
0U
0U!
xU"
1V
xV!
xV"
1W
0W!
bx W"
0X
xX!
bx X"
0Y
xY!
bx Y"
0Z
xZ!
bx Z"
0[
x[!
bx ["
0\
x\!
bx \"
1]
x]!
bx ]"
1^
x^!
bx ^"
0_
x_!
bx _"
0`
x`!
x`"
b0 a
xa!
xa"
b11111111111111111111111111111111 b
xb!
xb"
b0 c
xc!
xc"
b10000 d
xd!
xd"
b11111111111111111111111111111111 e
xe!
xe"
b0 f
xf!
xf"
b1 g
xg!
xg"
b10 h
xh!
xh"
xi
xi!
xi"
xj
xj!
xj"
xk
xk!
bx k"
xl
xl!
bx l"
bx m
xm!
bx m"
bx n
xn!
xn"
bx o
xo!
bx o"
bx p
xp!
xp"
0q
xq!
bx q"
0r
xr!
bx r"
bx00 s
xs!
xs"
bx t
xt!
xt"
bx u
xu!
xu"
xv
xv!
xv"
bx w
xw!
bx w"
bx x
xx!
bx x"
xy
xy!
bx y"
bx z
xz!
xz"
bx {
x{!
x{"
bx |
x|!
x|"
bx }
x}!
x}"
bx ~
x~!
x~"
$end
#5000
1"
bx "#
b0 #
b0 $
bx $#
0&
b0 '
0(
0(!
0*
0+
1-
b0 .
b0 /
b0 /!
00!
00"
01
01!
b0 2
b11111111111111111111111111111111 2!
02"
03
b0 3!
b0 4!
05
06
0>"
b0 ?
0@
b0 B!
0B"
0C
b0 D"
0F!
0G!
0H!
1I
0I!
0J!
b0 K
0K!
0L!
0M!
0N!
0O!
0P!
bx S!
bx T!
0U!
0U"
0V!
0V"
0\!
0]!
b1000000 ]"
0^!
b0 ^"
0_!
b110011001100101011101000110001101101000 _"
0`!
0`"
0a!
0a"
0b"
0c"
0d"
0e"
0g"
0h"
0i
0i"
0j
0j!
0j"
0k!
0l!
0m!
0n!
0n"
0o!
b0 o"
0p"
0s!
xs"
0t!
0u!
0u"
0v
0v!
0v"
0w!
bx w"
b0 x
0x!
bx x"
0y
0y!
bx y"
0z!
b0 {
0{!
b0 |
0|!
b0 }
0}"
b0 ~
0~"
#10000
0"
0)
0-
04
0I
#15000
1"
1-
01"
03"
0<"
0="
1I
0T"
b0 o"
xs"
#20000
0!
0"
0,
0-
0I
1J
#25000
1"
0*!
1-
bx 3!
b0 C!
0G
1G!
1I
0J!
0N!
1V!
0l
bx l"
bx o"
1q
b0 s
b1111 u
b1 {
#30000
0"
0-
0I
#35000
1"
1(!
1)!
b0 +!
1-
b0 -!
1B
b1 B!
1C
b0 D
b0 F
1I
0J!
0L
1j
1k
bx l"
b0 m
b0 o
0q
b10 {
#40000
0"
0-
0I
#45000
1"
bx $
1(
1*
1-
bx /
13
15
1I
b1 K
1M!
0O!
bx l"
b11 {
#50000
0"
b111111110000000000000010010011 %
1)
0-
b111111110000000000000010010011 0
14
0I
#55000
1"
0(
0*
1*!
1-
b111111110000000000000010010011 .!
03
05
b111111110000000000000010010011 D!
1G
b111111110000000000000010010011 H
1I
1J!
b10 K
0O!
b111111110000000000000010010011 S!
b111111110000000000000010010011 T!
1W!
1l
bx l"
b111111110000000000000010010011 p
b100 {
#60000
0"
0)
0-
04
0I
#65000
1"
b0 "#
bx $#
b111111110000000000000010010011 %!
0&"
0(!
0("
0*!
b1 +"
b0 ,"
1-
b11100 -"
b1111111100 /"
10"
04"
06"
09"
1@"
0A"
b0 B!
0C
b0 D"
b111111110000000000000010010011 E!
0G
0G!
1I
0J!
b0 K
0M!
0N!
0O!
b111111110000000000000010010011 S!
1U"
0V!
0W!
0X!
0Y!
0Z!
0[!
0j
0l
bx l"
bx00 s
b101 {
#70000
0"
0-
0I
#75000
0!"
1"
0""
b0 "#
0#"
0$"
bx $#
0%"
b111111110000000000000010010011 &!
b0 '!
0'"
0)"
0*"
1-
b1111111100 ."
b100 /!
00"
11"
05"
07"
18"
0:"
0;"
0C"
b1100001011001000110010001101001 D"
b1100001011001000110010001101001 E"
1F!
b1111111100 F"
b0 G"
b11100 H"
1I
b1 I"
0L"
0M"
0N!
1T"
0U"
1V!
1V"
b100000 ]"
b11011000110010001011111011100100111001100110001 _"
0b!
0c!
0d!
0e!
0f!
0f"
0g!
0h!
0i!
1j!
b1 k"
bx l"
0p!
1q
0q!
0r!
b100 s
xs"
bx w"
bx x"
bx y"
b110 {
b1 |
0}!
b100 ~
0~!
#80000
0"
0-
0I
#85000
b0 !!
1"
b1111111100 "!
b0 "#
bx $#
1(!
b100 +!
1-
01"
b0 8
b1111111100 9
1;"
0?"
b1 B!
1C
b100 D
1G!
1I
0J!
b0 J"
1L"
0N!
b1100001011001000110010001101001 N"
b1111111100 O"
b111111110000000000000010010011 P"
b0 Q"
b11100 R"
b1 S"
0T"
b1100001011001000110010001101001 W"
b1111111100 X"
b111111110000000000000010010011 Y"
b0 Z"
b11100 ["
b1 \"
b1000 ]"
b1100101011110000110010101100011 _"
1j
b100 m
0q
b1111111100 q"
xs"
b1111111100 t
b1111111100 w"
b0 x"
b0 y"
0z"
b111 {
1{"
1|"
#90000
0"
0-
0I
#95000
b1111111100 !#
1"
b0 "#
b100 #
b1111111100 #!
bx $#
1(
1*
1-
b100 .
b100 /!
13
15
1I
b1 K
1M!
0O!
b1000000 ]"
b110011001100101011101000110001101101000 _"
1c"
1d"
b1111111100 r"
b1000 {
1~"
#100000
0"
b1010000000100011 %
1)
0-
b1010000000100011 0
14
0I
#105000
bx !#
1"
b0 "#
bx #!
bx $#
0(
0*
1*!
1-
b1010000000100011 .!
b100 /!
03
05
b1010000000100011 D!
1G
b1010000000100011 H
1I
1J!
b10 K
0O!
b1010000000100011 S!
b1010000000100011 T!
1W!
0c"
0d"
1l
bx l"
b1010000000100011 p
b1001 {
b100 }
0~"
#110000
0"
0)
0-
04
0I
#115000
1"
b1111111100 "#
b0 ##
bx $#
b1010000000100011 %!
0(!
0*!
b0 +"
b1 ,"
1-
b0 -"
b1010000000000000 /"
10"
19"
0@"
b0 B!
0C
b1010000000100011 E!
0F!
0G
0G!
1I
0J!
b0 K
0M!
0N!
0O!
b1010000000100011 S!
1U"
0V!
0W!
0j
0l
bx l"
b0 s
b1010 {
#120000
0"
0-
0I
#125000
1"
b1111111100 "#
bx $#
b1010000000100011 &!
b100 '!
1-
b0 ."
b1000 /!
00"
11"
08"
0;"
b111001101110111 D"
b111001101110111 E"
1F!
b0 F"
b1 G"
b0 H"
1I
b0 I"
bx J"
0L"
0N!
1T"
0U"
1V!
b100000 ]"
b11011000110010001011111011100100111001100110001 _"
1i!
0j!
b0 k"
bx l"
1q
bx q"
b1000 s
xs"
b1011 {
b10 |
b1000 ~
#130000
0"
0-
0I
#135000
b1111111100 !!
1"
b0 "!
b1111111100 "#
b0 $!
bx $#
1(!
b1000 +!
1-
01"
b1111111100 8
b0 9
b1 B!
1C
b1000 D
1G!
1I
0J!
b1111111100 J"
b0 K"
1L"
1M"
0N!
b111001101110111 N"
b0 O"
b1010000000100011 P"
b1 Q"
b0 R"
b0 S"
0T"
b111001101110111 W"
b0 X"
b1010000000100011 Y"
b1 Z"
b0 ["
b0 \"
b10 ]"
b111001101110100011011010110010101101101 _"
1j
b1000 m
0q
bx r"
xs"
b0 t
b1111111100 w"
b1111111100 x"
b1111111100 y"
b1100 {
0{"
0|"
#140000
0"
0-
0I
#145000
1"
b1000 #
bx $!
1(
1*
1-
b1000 .
13
15
1I
b1 K
1M!
0O!
b1101 {
#150000
0"
b1010000100000011 %
1)
0-
b1010000100000011 0
14
0I
#155000
1"
0(
0*
1*!
1-
b1010000100000011 .!
03
05
b1010000100000011 D!
1G
b1010000100000011 H
1I
1J!
b10 K
0O!
b1010000100000011 S!
b1010000100000011 T!
1W!
1l
b1010000100000011 p
b1110 {
#160000
0"
0)
0-
04
0I
#165000
1"
b1010000100000011 %!
0(!
0*!
b10 +"
1-
10"
16"
09"
b0 B!
0C
b1010000100000011 E!
0F!
0G
0G!
1I
1I!
0J!
b0 K
0M!
0N!
0O!
b1010000100000011 S!
0W!
1b"
0j
0l
1r
b1111111100 s
b1111 {
#170000
0"
0-
0I
#175000
1"
1(!
0)!
b1111111100 +!
b0 ,!
1-
b1111 -!
00"
11"
0B
b10 B!
1C
b1111111100 D
b110110001110111 D"
b0 E
b1111 F
1I
0J!
1L
0b"
1d!
0i!
1j
0k
b1111111100 m
b0 n
b1111 o
0r
b10000 {
#180000
0"
0-
0I
#185000
1"
b1111111100 #
b0 $
1&
b1111 '
1(
1*
1-
b1111111100 .
b0 /
11
01"
b1111 2
13
15
1?"
1I
b1 K
1M!
0O!
b110110001110111 W"
b1010000100000011 Y"
b10 \"
b10001 {
#190000
0"
1)
0-
14
0I
#195000
1"
0&
0(
0*
1*!
1-
01
03
05
1G
1I
1J!
b10 K
0O!
b1010000100000011 S!
1W!
1l
b10010 {
#200000
0"
0)
0-
04
0I
#205000
1"
b1111111100 "#
bx $#
0(!
0*!
1-
10"
12"
b0 B!
0C
0G
1I
0I!
0J!
b0 K
0M!
0O!
b1010000100000011 S!
1U"
0V!
0W!
b1000000 ]"
b110011001100101011101000110001101101000 _"
0j
0l
b10011 {
#210000
0"
0-
0I
#215000
1"
b1111111100 "#
bx $#
b1010000100000011 &!
b1000 '!
1-
b1100 /!
00"
11"
02"
13"
b110110001110111 E"
1F!
1I
b10 I"
bx J"
bx K"
0L"
0M"
0N!
1T"
0U"
1V!
b100000 ]"
b11011000110010001011111011100100111001100110001 _"
b10 k"
bx l"
1q
b1100 s
b10100 {
b11 |
b1000 }
b1100 ~
#220000
0"
0-
0I
#225000
b1111111100 !!
1"
bx "!
b1111111100 "#
bx $#
1(!
1)!
b1100 +!
1-
b0 -!
01"
03"
bx 9
1B
b1 B!
1C
b1100 D
b0 F
1G!
1I
0J!
b1111111100 J"
0L
1L"
0N!
b110110001110111 N"
b1010000100000011 P"
b10 S"
0T"
b1 ]"
b110110001100100011011010110010101101101 _"
1j
1k
b1100 m
b0 o
0q
xs"
bx t
bx w"
bx x"
bx y"
xz"
b10101 {
x{"
x|"
#230000
0"
0-
0I
#235000
1"
b1100 #
b0 '
1(
1*
1-
b1100 .
b1100 /!
b0 2
13
15
1I
b1 K
1M!
0O!
1c"
b10110 {
#240000
0"
b100010000000100010011 %
1)
0-
b100010000000100010011 0
14
0I
#245000
1"
0(
0*
1*!
1-
b100010000000100010011 .!
03
05
b100010000000100010011 D!
1G
b100010000000100010011 H
1I
1J!
b10 K
0O!
b100010000000100010011 S!
b100010000000100010011 T!
1W!
1l
b100010000000100010011 p
b10111 {
#250000
0"
0)
0-
04
0I
#255000
1"
bx "#
b1111111100 ##
bx $#
b100010000000100010011 %!
0(!
0*!
b10 ,"
1-
b1 -"
b10000100000000000 /"
10"
06"
1@"
b0 B!
0C
b100010000000100010011 E!
0F!
0G
0G!
1H!
1I
0J!
b0 K
0M!
0N!
0O!
b100010000000100010011 S!
0W!
1a"
1h"
0j
0l
1q
b1111111100 s
b11000 {
#260000
0"
0-
0I
#265000
1"
1(!
0)!
b1111111100 +!
1-
b1 ."
00"
11"
18"
0B
b1 B!
1C
b1111111100 D
b1100001011001000110010001101001 D"
1I
0J!
0a"
0d!
1j
1j!
0k
b1111111100 m
0q
b11001 {
#270000
0"
0-
0I
#275000
1"
b1111111100 #
1(
1*
1-
b1111111100 .
01"
13
15
1;"
0?"
1I
b1 K
1M!
0O!
b1100001011001000110010001101001 W"
b1 X"
b100010000000100010011 Y"
b10 Z"
b1 ["
xs"
b11010 {
#280000
0"
b0 %
1)
0-
b0 0
14
0I
#285000
1"
0(
0*
1*!
1-
b0 .!
03
05
b0 D!
1G
b0 H
1I
1J!
b10 K
0O!
b0 S!
b0 T!
1W!
1l
b0 p
b11011 {
#290000
0"
0)
0-
04
0I
#295000
b0 !#
1"
bx "#
b0 #!
bx $#
b0 %!
0(!
0*!
1-
b1100 /!
10"
12"
b0 B!
0C
b0 E!
0G
0H!
1I
0J!
b0 K
0M!
0O!
b0 S!
1U"
0V!
0W!
b1000000 ]"
b110011001100101011101000110001101101000 _"
0j
0l
b11100 {
1~"
#300000
0"
0-
0I
#305000
bx !#
1"
b0 "#
bx #!
bx $#
b100010000000100010011 &!
b1100 '!
1-
b10000 /!
00"
11"
02"
13"
b1100001011001000110010001101001 E"
1F!
b1 F"
b10 G"
b1 H"
1I
bx J"
0L"
0N!
1T"
0U"
1V!
b100000 ]"
b11011000110010001011111011100100111001100110001 _"
0c"
0h"
bx l"
1q
b10000 s
b11101 {
b100 |
b1100 }
b10000 ~
0~"
#310000
0"
0-
0I
